<?xml version="1.0" encoding="utf-8"?>
<!-- Generator: Adobe Illustrator 22.1.0, SVG Export Plug-In . SVG Version: 6.00 Build 0)  -->
<svg version="1.1" id="Layer_1" xmlns="http://www.w3.org/2000/svg" xmlns:xlink="http://www.w3.org/1999/xlink" x="0px" y="0px"
	 viewBox="0 0 21.1 8.2" style="enable-background:new 0 0 21.1 8.2;" xml:space="preserve">
<style type="text/css">
	.st0{fill:#FFFFFF;}
</style>
<g>
	<path class="st0" d="M0,0h4.4v0.9H1v2.7h3.1v0.9H1v3.7H0V0z"/>
	<path class="st0" d="M6.9,0v8.1h-1V0H6.9z"/>
	<path class="st0" d="M8.7,8.1V0h1.1l2.6,4.1C13,5,13.5,5.9,13.9,6.7l0,0c-0.1-1.1-0.1-2.1-0.1-3.3V0h1v8.1h-1.1L11.2,4
		c-0.6-0.9-1.1-1.8-1.5-2.7l0,0c0.1,1,0.1,2,0.1,3.3v3.5H8.7z"/>
	<path class="st0" d="M16.5,6.8c0.5,0.3,1.2,0.5,1.9,0.5C19.4,7.3,20,6.8,20,6c0-0.8-0.4-1.2-1.5-1.6c-1.3-0.5-2.1-1.2-2.1-2.3
		c0-1.3,1-2.2,2.6-2.2c0.8,0,1.4,0.2,1.8,0.4l-0.3,0.9c-0.3-0.1-0.8-0.4-1.5-0.4c-1.1,0-1.5,0.7-1.5,1.2c0,0.8,0.5,1.1,1.6,1.6
		c1.4,0.5,2.1,1.2,2.1,2.4c0,1.2-0.9,2.3-2.8,2.3c-0.8,0-1.6-0.2-2.1-0.5L16.5,6.8z"/>
</g>
</svg>
